\relax 
\providecommand\hyper@newdestlabel[2]{}
\providecommand\HyperFirstAtBeginDocument{\AtBeginDocument}
\HyperFirstAtBeginDocument{\ifx\hyper@anchor\@undefined
\global\let\oldcontentsline\contentsline
\gdef\contentsline#1#2#3#4{\oldcontentsline{#1}{#2}{#3}}
\global\let\oldnewlabel\newlabel
\gdef\newlabel#1#2{\newlabelxx{#1}#2}
\gdef\newlabelxx#1#2#3#4#5#6{\oldnewlabel{#1}{{#2}{#3}}}
\AtEndDocument{\ifx\hyper@anchor\@undefined
\let\contentsline\oldcontentsline
\let\newlabel\oldnewlabel
\fi}
\fi}
\global\let\hyper@last\relax 
\gdef\HyperFirstAtBeginDocument#1{#1}
\providecommand\HyField@AuxAddToFields[1]{}
\providecommand\HyField@AuxAddToCoFields[2]{}
\citation{2014ApJ...783..135A}
\citation{Intro_BHphysics}
\citation{2019ApJ...875L...1E}
\citation{Intro_BHphysics}
\citation{2007ApJS..173..267S}
\citation{1981PASP...93....5B}
\citation{2013ARA&A..51..511K}
\citation{1967PhDT.........1T}
\citation{2015ARA&A..53...51S}
\citation{2012MNRAS.423.1726S}
\citation{2018MNRAS.476.1765L}
\citation{2017MNRAS.466.4731G}
\citation{2020arXiv200105506L}
\citation{2019arXiv190602209Z}
\citation{2016ApJ...833..158C}
\citation{2015MNRAS.449..528H}
\citation{2013MNRAS.436.3507N}
\citation{2017MNRAS.466.4731G}
\citation{2019arXiv190602209Z}
\newlabel{firstpage}{{}{1}{}{Doc-Start}{}}
\@writefile{toc}{\contentsline {section}{\numberline {1}Introduction}{1}{section.1}\protected@file@percent }
\citation{2014MNRAS.443.1173H}
\citation{2005MNRAS.361..776S}
\citation{2010ApJ...725.2312O,2012ApJ...744...63O}
\citation{2010ApJ...710..903M}
\citation{2010ApJ...725.2312O}
\citation{2017MNRAS.472.2468H}
\citation{2019MNRAS.487..333H}
\citation{2018arXiv181111059F}
\@writefile{toc}{\contentsline {section}{\numberline {2}Data-set and Methods}{2}{section.2}\protected@file@percent }
\newlabel{sect:Data}{{2}{2}{Data-set and Methods}{section.2}{}}
\@writefile{toc}{\contentsline {subsection}{\numberline {2.1}CosmoZoom simulations}{2}{subsection.2.1}\protected@file@percent }
\citation{2010ApJ...722..642O}
\citation{1952MNRAS.112..195B}
\citation{2018arXiv180303652R}
\citation{2015ApJ...812...29T}
\@writefile{toc}{\contentsline {subsubsection}{\numberline {2.1.1}Model For Baryonic Processes}{3}{subsubsection.2.1.1}\protected@file@percent }
\newlabel{sect:Baryonic Processes}{{2.1.1}{3}{Model For Baryonic Processes}{subsubsection.2.1.1}{}}
\@writefile{toc}{\contentsline {subsubsection}{\numberline {2.1.2}Model For AGN-feedback}{3}{subsubsection.2.1.2}\protected@file@percent }
\@writefile{toc}{\contentsline {subsection}{\numberline {2.2}Finding the Galaxy and Morphological Classification}{3}{subsection.2.2}\protected@file@percent }
\newlabel{sect:MorphClass}{{2.2}{3}{Finding the Galaxy and Morphological Classification}{subsection.2.2}{}}
\citation{Gallazzi2005}
\citation{Gallazzi2005}
\citation{Gallazzi2005}
\@writefile{toc}{\contentsline {subsection}{\numberline {2.3}Rescaling of Effective Radius}{4}{subsection.2.3}\protected@file@percent }
\newlabel{eq linear fit}{{7}{4}{Rescaling of Effective Radius}{equation.7}{}}
\@writefile{toc}{\contentsline {subsection}{\numberline {2.4}Calculating Projected Profiles and Gradients}{4}{subsection.2.4}\protected@file@percent }
\newlabel{eq:R-grad}{{9}{4}{Calculating Projected Profiles and Gradients}{equation.9}{}}
\newlabel{eq:log mu-grad}{{10}{4}{Calculating Projected Profiles and Gradients}{equation.10}{}}
\@writefile{toc}{\contentsline {subsection}{\numberline {2.5}Approximation of R$_e$ in the Case Studies}{4}{subsection.2.5}\protected@file@percent }
\@writefile{toc}{\contentsline {section}{\numberline {3}Morphologies and Global Trends}{4}{section.3}\protected@file@percent }
\newlabel{sect:Morphology Global}{{3}{4}{Morphologies and Global Trends}{section.3}{}}
\citation{2016ApJ...833..158C}
\citation{2014ApJ...788...72G}
\citation{2014ApJ...788...72G}
\citation{2014ApJ...788...72G}
\citation{Gallazzi2005}
\@writefile{lot}{\contentsline {table}{\numberline {1}{\ignorespaces Number of galaxies classified as either ETG or non-ETG at each considered redshift for the AGN-run (left) and NoAGN-run (right). Note that for z = 2 some galaxies were too small to be meaningfully measured in the subsequent analysis.}}{5}{table.1}\protected@file@percent }
\newlabel{tab:morph-z}{{1}{5}{Number of galaxies classified as either ETG or non-ETG at each considered redshift for the AGN-run (left) and NoAGN-run (right). Note that for z = 2 some galaxies were too small to be meaningfully measured in the subsequent analysis}{table.1}{}}
\@writefile{lof}{\contentsline {figure}{\numberline {1}{\ignorespaces Global Age$_*$ and Z$_*$ of AGN- (top) and NoAGN-galaxies (bottom) at z = 0, calculated within 1 R$_e$ (darkblue), 2 R$_e$ (blue) and 0.1 $\times $ R200 (the assumed extent of the galaxy; turqoise), plotted versus the galaxies' stellar mass and on top of the local distribution found for SDSS galaxies by \citet  {Gallazzi2005}, table 2.}}{5}{figure.1}\protected@file@percent }
\newlabel{fig:Glob AGN}{{1}{5}{Global Age$_*$ and Z$_*$ of AGN- (top) and NoAGN-galaxies (bottom) at z = 0, calculated within 1 R$_e$ (darkblue), 2 R$_e$ (blue) and 0.1 $\times $ R200 (the assumed extent of the galaxy; turqoise), plotted versus the galaxies' stellar mass and on top of the local distribution found for SDSS galaxies by \citet {Gallazzi2005}, table 2}{figure.1}{}}
\@writefile{lof}{\contentsline {figure}{\numberline {2}{\ignorespaces Global Age$_*$ and Z$_*$ of AGN- (top) and NoAGN-galaxies (bottom) at z = 0.7, calculated within 1 R$_e$ (darkblue), 2 R$_e$ (blue) and 0.1 $\times $ R200 (the assumed extent of the galaxy; turqoise), plotted versus the galaxies' stellar mass and on top of the z = 0.7 distribution found for IMACS galaxies by \citet  {2014ApJ...788...72G}, table 3.}}{5}{figure.2}\protected@file@percent }
\newlabel{fig:Glob 07}{{2}{5}{Global Age$_*$ and Z$_*$ of AGN- (top) and NoAGN-galaxies (bottom) at z = 0.7, calculated within 1 R$_e$ (darkblue), 2 R$_e$ (blue) and 0.1 $\times $ R200 (the assumed extent of the galaxy; turqoise), plotted versus the galaxies' stellar mass and on top of the z = 0.7 distribution found for IMACS galaxies by \citet {2014ApJ...788...72G}, table 3}{figure.2}{}}
\@writefile{toc}{\contentsline {section}{\numberline {4}Present-day Projected Profiles}{5}{section.4}\protected@file@percent }
\newlabel{sect:z0 Profiles}{{4}{5}{Present-day Projected Profiles}{section.4}{}}
\@writefile{lof}{\contentsline {figure}{\numberline {3}{\ignorespaces From top to bottom this shows the face-on (i.e. in z-projection) radial profiles for Z$_*$ and Age$_*$, colour-coded by the galaxy's r-band luminosity-weighted velocity dispersion $\sigma _e$, of AGN-ETGs, NoAGN-ETGs and NoAGN-nonETGs. Dashed black lines show the corresponding median profiles from Z19, while the grey-shaded area indicates the are in between the 16$^{th}$ and 84$^{th}$ percentile.}}{6}{figure.3}\protected@file@percent }
\newlabel{fig:zProfiles}{{3}{6}{From top to bottom this shows the face-on (i.e. in z-projection) radial profiles for Z$_*$ and Age$_*$, colour-coded by the galaxy's r-band luminosity-weighted velocity dispersion $\sigma _e$, of AGN-ETGs, NoAGN-ETGs and NoAGN-nonETGs. Dashed black lines show the corresponding median profiles from Z19, while the grey-shaded area indicates the are in between the 16$^{th}$ and 84$^{th}$ percentile}{figure.3}{}}
\@writefile{toc}{\contentsline {section}{\numberline {5}Contribution of In-situ and Ex-situ Stars}{6}{section.5}\protected@file@percent }
\newlabel{sect:InsituExsitu Results}{{5}{6}{Contribution of In-situ and Ex-situ Stars}{section.5}{}}
\@writefile{toc}{\contentsline {section}{\numberline {6}Case Studies}{6}{section.6}\protected@file@percent }
\newlabel{sect:Case Studies}{{6}{6}{Case Studies}{section.6}{}}
\@writefile{lof}{\contentsline {figure}{\numberline {4}{\ignorespaces From top to bottom, this shows the face-on (i.e. in z-projection) radial profiles of in- and ex-situ formed stars for Z$_*$ and Age$_*$, colour-coded by the galaxies' r-band luminosity-weighted velocity dispersion $\sigma _e$, of AGN-ETGs, NoAGN-ETGs and NoAGN-nonETGs.}}{7}{figure.4}\protected@file@percent }
\newlabel{fig:ProfilesInEx}{{4}{7}{From top to bottom, this shows the face-on (i.e. in z-projection) radial profiles of in- and ex-situ formed stars for Z$_*$ and Age$_*$, colour-coded by the galaxies' r-band luminosity-weighted velocity dispersion $\sigma _e$, of AGN-ETGs, NoAGN-ETGs and NoAGN-nonETGs}{figure.4}{}}
\@writefile{toc}{\contentsline {subsection}{\numberline {6.1}Halo M0089: most affected by both types of mergers}{7}{subsection.6.1}\protected@file@percent }
\@writefile{lof}{\contentsline {figure}{\numberline {5}{\ignorespaces For Halo M0089, this shows (top to bottom) 1) the time evolution in the AGN-run of logarithmic inner (0.2 - 1 R$_e$, in green) and outer (1 - 2 R$_e$, in violet) radial gradients of Z$_*$ (left) and Age$_*$ (right) as well as the galaxy's logarithmic in-situ SFH (yellow), cummulative ex-situ SFH (blue) and the central SMBH's mass accretion rate (BHAR, grey-dashed) 2) same for the NoAGN-run and 3) the z = 0 radial profiles of all (green), in-situ (yellow) and ex-situ (violet) formed stars of the AGN- (solid) and NoAGN-run (dashed), where the in-situ fraction per radial bin is given in the historgrams below (again solid VS dashed).}}{8}{figure.5}\protected@file@percent }
\newlabel{fig:case M0089}{{5}{8}{For Halo M0089, this shows (top to bottom) 1) the time evolution in the AGN-run of logarithmic inner (0.2 - 1 R$_e$, in green) and outer (1 - 2 R$_e$, in violet) radial gradients of Z$_*$ (left) and Age$_*$ (right) as well as the galaxy's logarithmic in-situ SFH (yellow), cummulative ex-situ SFH (blue) and the central SMBH's mass accretion rate (BHAR, grey-dashed) 2) same for the NoAGN-run and 3) the z = 0 radial profiles of all (green), in-situ (yellow) and ex-situ (violet) formed stars of the AGN- (solid) and NoAGN-run (dashed), where the in-situ fraction per radial bin is given in the historgrams below (again solid VS dashed)}{figure.5}{}}
\@writefile{lof}{\contentsline {figure}{\numberline {6}{\ignorespaces For Halo M0089 (top: AGN-run, bottom: NoAGN-run) this shows the present-day maps of r-band luminosity weighted Age$_*$ (right) and Z$_*$ (left) produced for the calculation of stellar population profiles. White circles mark a radius of 2 R$_e$, the width of pixels is 0.4 kpc/h$_0$ each.}}{9}{figure.6}\protected@file@percent }
\newlabel{fig:map M0089}{{6}{9}{For Halo M0089 (top: AGN-run, bottom: NoAGN-run) this shows the present-day maps of r-band luminosity weighted Age$_*$ (right) and Z$_*$ (left) produced for the calculation of stellar population profiles. White circles mark a radius of 2 R$_e$, the width of pixels is 0.4 kpc/h$_0$ each}{figure.6}{}}
\@writefile{toc}{\contentsline {subsection}{\numberline {6.2}Further comparison to other merger histories}{9}{subsection.6.2}\protected@file@percent }
\@writefile{toc}{\contentsline {section}{\numberline {7}Time Evolution of Projected Gradients}{9}{section.7}\protected@file@percent }
\citation{2016ApJ...833..158C}
\citation{2017MNRAS.471.3856T}
\@writefile{lof}{\contentsline {figure}{\numberline {7}{\ignorespaces For galaxies of the AGN-run (filled symbols) and NoAGN-run (open symbols) this shows the face-on inner (0.2 - 1 R$_e$, green) and outer (1 - 2 R$_e$, violet) radial gradients for Z$_*$ and Age$_*$ at redshift 0 (top) and 0.5 (middle), as well as gradients along $\mu _*$ at z = 0 (bottom). ETGs are marked as circles, non-ETGs as stars and the results from observations (see Z19) as coloured contour lines in the background, showing the 40$^{th}$ percentile.}}{10}{figure.7}\protected@file@percent }
\newlabel{fig:Gradients}{{7}{10}{For galaxies of the AGN-run (filled symbols) and NoAGN-run (open symbols) this shows the face-on inner (0.2 - 1 R$_e$, green) and outer (1 - 2 R$_e$, violet) radial gradients for Z$_*$ and Age$_*$ at redshift 0 (top) and 0.5 (middle), as well as gradients along $\mu _*$ at z = 0 (bottom). ETGs are marked as circles, non-ETGs as stars and the results from observations (see Z19) as coloured contour lines in the background, showing the 40$^{th}$ percentile}{figure.7}{}}
\citation{2016ApJ...833..158C}
\citation{2017MNRAS.471.3856T}
\citation{2016ApJ...833..158C}
\citation{2017MNRAS.471.3856T}
\@writefile{toc}{\contentsline {subsection}{\numberline {7.1}Projected Gradients with Different Calculation}{11}{subsection.7.1}\protected@file@percent }
\@writefile{toc}{\contentsline {section}{\numberline {8}Statistics: Spearman Rank Correlation Test}{11}{section.8}\protected@file@percent }
\newlabel{sect:Spearman Testing}{{8}{11}{Statistics: Spearman Rank Correlation Test}{section.8}{}}
\@writefile{lot}{\contentsline {table}{\numberline {2}{\ignorespaces For AGN-galaxies this shows the Spearman's rank correlation coefficients of statistically significant (anti)-correlations found for ETGs. The columns are denoted as [redshift/quantity for which relation to quantity in the respective row is found] and the coefficients are marked with either "f" (gradients become flatter with increasing quantity) or "s" (gradients become steeper). "Z" means the relation has also been found in Z19.}}{11}{table.2}\protected@file@percent }
\newlabel{tab:Spearman AGN-results}{{2}{11}{For AGN-galaxies this shows the Spearman's rank correlation coefficients of statistically significant (anti)-correlations found for ETGs. The columns are denoted as [redshift/quantity for which relation to quantity in the respective row is found] and the coefficients are marked with either "f" (gradients become flatter with increasing quantity) or "s" (gradients become steeper). "Z" means the relation has also been found in Z19}{table.2}{}}
\citation{2014MNRAS.445..581H}
\citation{2013MNRAS.433.3297D,2016MNRAS.463.3948D}
\@writefile{lof}{\contentsline {figure}{\numberline {8}{\ignorespaces Logarithmic radial gradients for Z$_*$ and Age$_*$ at z = 0, calculated as in \citet  {2016ApJ...833..158C} and \citet  {2017MNRAS.471.3856T} and shown as in figure\nobreakspace  {}\ref  {fig:Gradients}.}}{12}{figure.8}\protected@file@percent }
\newlabel{fig:Gradients C16/T17}{{8}{12}{Logarithmic radial gradients for Z$_*$ and Age$_*$ at z = 0, calculated as in \citet {2016ApJ...833..158C} and \citet {2017MNRAS.471.3856T} and shown as in figure~\ref {fig:Gradients}}{figure.8}{}}
\@writefile{lof}{\contentsline {figure}{\numberline {9}{\ignorespaces For ETGs (circles) and non-ETGs (stars) of the AGN-run (filled symbols) and NoAGN-run (empty symbols) this figure presents the face-on inner (0.2 - 1 R$_e$, green) and outer (1 - 2 R$_e$, violet) radial Z$_*$-gradients (left) and Z$_*$-gradients along $\mu _*$ (right) as a function of major merger mass gain G$_{mm}$ (top) and in-situ fraction f$_{in}$ (bottom) at z = 0.}}{12}{figure.9}\protected@file@percent }
\newlabel{fig:Grad fin Gmm}{{9}{12}{For ETGs (circles) and non-ETGs (stars) of the AGN-run (filled symbols) and NoAGN-run (empty symbols) this figure presents the face-on inner (0.2 - 1 R$_e$, green) and outer (1 - 2 R$_e$, violet) radial Z$_*$-gradients (left) and Z$_*$-gradients along $\mu _*$ (right) as a function of major merger mass gain G$_{mm}$ (top) and in-situ fraction f$_{in}$ (bottom) at z = 0}{figure.9}{}}
\@writefile{toc}{\contentsline {section}{\numberline {9}Discussion}{12}{section.9}\protected@file@percent }
\newlabel{sect:Discussion}{{9}{12}{Discussion}{section.9}{}}
\@writefile{toc}{\contentsline {subsection}{\numberline {9.1}Global Impact of AGN Feedback}{12}{subsection.9.1}\protected@file@percent }
\@writefile{toc}{\contentsline {subsection}{\numberline {9.2}Present-day Stellar Population Profiles and the Difference between In-situ and Ex-situ Stars}{12}{subsection.9.2}\protected@file@percent }
\citation{1996grdy.conf..121W}
\@writefile{toc}{\contentsline {subsection}{\numberline {9.3}Trends seen in the Case Studies}{13}{subsection.9.3}\protected@file@percent }
\@writefile{toc}{\contentsline {subsection}{\numberline {9.4}Formation of ETGs without AGN feedback}{13}{subsection.9.4}\protected@file@percent }
\@writefile{toc}{\contentsline {subsection}{\numberline {9.5}Time Evolution and Relations of Projected Gradients}{13}{subsection.9.5}\protected@file@percent }
\citation{2017ApJ...844...31C}
\citation{2017MNRAS.472.2468H}
\citation{2019arXiv190602209Z}
\@writefile{toc}{\contentsline {subsection}{\numberline {9.6}Too efficient or early quenching?}{14}{subsection.9.6}\protected@file@percent }
\@writefile{toc}{\contentsline {section}{\numberline {10}Conclusions}{14}{section.10}\protected@file@percent }
\newlabel{sect:Conclusion}{{10}{14}{Conclusions}{section.10}{}}
\bibstyle{mnras}
\bibdata{mnras_template}
\bibcite{2014ApJ...783..135A}{{1}{2014}{{{Amblard} et~al.}}{{{Amblard}, {Riguccini}, {Temi}, {Im}, {Fanelli} \& {Serra}}}}
\bibcite{1981PASP...93....5B}{{2}{1981}{{{Baldwin} et~al.}}{{{Baldwin}, {Phillips} \& {Terlevich}}}}
\bibcite{1952MNRAS.112..195B}{{3}{1952}{{{Bondi}}}{{{Bondi}}}}
\bibcite{2017ApJ...844...31C}{{4}{2017}{{{Choi} et~al.}}{{{Choi}, {Ostriker}, {Naab}, {Somerville}, {Hirschmann}, {N{\'u}{\~n}ez}, {Hu} \& {Oser}}}}
\bibcite{2016ApJ...833..158C}{{5}{2016}{{{Cook} et~al.}}{{{Cook}, {Conroy}, {Pillepich}, {Rodriguez-Gomez} \& {Hernquist}}}}
\bibcite{2013MNRAS.433.3297D}{{6}{2013}{{{Dubois} et~al.}}{{{Dubois}, {Gavazzi}, {Peirani} \& {Silk}}}}
\bibcite{2016MNRAS.463.3948D}{{7}{2016}{{{Dubois} et~al.}}{{{Dubois}, {Peirani}, {Pichon}, {Devriendt}, {Gavazzi}, {Welker} \& {Volonteri}}}}
\bibcite{2019ApJ...875L...1E}{{8}{2019}{{{Event Horizon Telescope Collaboration}}}{{{Event Horizon Telescope Collaboration}}}}
\bibcite{2018arXiv181111059F}{{9}{2018}{{{Frigo} et~al.}}{{{Frigo}, {Naab}, {Hirschmann}, {Choi}, {Somerville}, {Krajnovic}, {Dav{\'e}} \& {Cappellari}}}}
\bibcite{Intro_BHphysics}{{10}{2011}{{Frolov \& Zelnikov}}{{Frolov \& Zelnikov}}}
\bibcite{Gallazzi2005}{{11}{2005}{{Gallazzi et~al.}}{{Gallazzi, Charlot, Brinchmann, White \& Tremonti}}}
\bibcite{2014ApJ...788...72G}{{12}{2014}{{{Gallazzi} et~al.}}{{{Gallazzi}, {Bell}, {Zibetti}, {Brinchmann} \& {Kelson}}}}
\bibcite{2017MNRAS.466.4731G}{{13}{2017}{{{Goddard} et~al.}}{{{Goddard} et~al.,}}}
\bibcite{2015MNRAS.449..528H}{{14}{2015}{{{Hirschmann} et~al.}}{{{Hirschmann}, {Naab}, {Ostriker}, {Forbes}, {Duc}, {Dav{\'e}}, {Oser} \& {Karabal}}}}
\bibcite{2017MNRAS.472.2468H}{{15}{2017}{{{Hirschmann} et~al.}}{{{Hirschmann}, {Charlot}, {Feltre}, {Naab}, {Choi}, {Ostriker} \& {Somerville}}}}
\bibcite{2019MNRAS.487..333H}{{16}{2019}{{{Hirschmann} et~al.}}{{{Hirschmann}, {Charlot}, {Feltre}, {Naab}, {Somerville} \& {Choi}}}}
\bibcite{2014MNRAS.445..581H}{{17}{2014}{{{Hopkins} et~al.}}{{{Hopkins}, {Kere{\v {s}}}, {O{\~n}orbe}, {Faucher-Gigu{\`e}re}, {Quataert}, {Murray} \& {Bullock}}}}
\bibcite{2014MNRAS.443.1173H}{{18}{2014}{{{Hu} et~al.}}{{{Hu}, {Naab}, {Walch}, {Moster} \& {Oser}}}}
\bibcite{2013ARA&A..51..511K}{{19}{2013}{{{Kormendy} \& {Ho}}}{{{Kormendy} \& {Ho}}}}
\bibcite{2020arXiv200105506L}{{20}{2020}{{{Lacerna} et~al.}}{{{Lacerna}, {Ibarra-Medel}, {Avila-Reese}, {Hern{\'a}ndez-Toledo}, {V{\'a}zquez-Mata} \& {S{\'a}nchez}}}}
\bibcite{2018MNRAS.476.1765L}{{21}{2018}{{{Li} et~al.}}{{{Li} et~al.,}}}
\bibcite{2010ApJ...710..903M}{{22}{2010}{{{Moster} et~al.}}{{{Moster}, {Somerville}, {Maulbetsch}, {van den Bosch}, {Macci{\`o}}, {Naab} \& {Oser}}}}
\bibcite{2013MNRAS.436.3507N}{{23}{2013}{{{Navarro-Gonz{\'a}lez} et~al.}}{{{Navarro-Gonz{\'a}lez}, {Ricciardelli}, {Quilis} \& {Vazdekis}}}}
\bibcite{2010ApJ...725.2312O}{{24}{2010}{{{Oser} et~al.}}{{{Oser}, {Ostriker}, {Naab}, {Johansson} \& {Burkert}}}}
\bibcite{2012ApJ...744...63O}{{25}{2012}{{{Oser} et~al.}}{{{Oser}, {Naab}, {Ostriker} \& {Johansson}}}}
\bibcite{2010ApJ...722..642O}{{26}{2010}{{{Ostriker} et~al.}}{{{Ostriker}, {Choi}, {Ciotti}, {Novak} \& {Proga}}}}
\bibcite{2018arXiv180303652R}{{27}{2018}{{{Röttgers} \& {Arth}}}{{{Röttgers} \& {Arth}}}}
\bibcite{2007ApJS..173..267S}{{28}{2007}{{{Salim} et~al.}}{{{Salim} et~al.,}}}
\bibcite{2012MNRAS.423.1726S}{{29}{2012}{{{Scannapieco} et~al.}}{{{Scannapieco} et~al.,}}}
\bibcite{2015ARA&A..53...51S}{{30}{2015}{{{Somerville} \& {Dav{\'e}}}}{{{Somerville} \& {Dav{\'e}}}}}
\bibcite{2005MNRAS.361..776S}{{31}{2005}{{{Springel} et~al.}}{{{Springel}, {Di Matteo} \& {Hernquist}}}}
\bibcite{2017MNRAS.471.3856T}{{32}{2017}{{{Taylor} \& {Kobayashi}}}{{{Taylor} \& {Kobayashi}}}}
\bibcite{2015ApJ...812...29T}{{33}{2015}{{{Teklu} et~al.}}{{{Teklu}, {Remus}, {Dolag}, {Beck}, {Burkert}, {Schmidt}, {Schulze} \& {Steinborn}}}}
\bibcite{1967PhDT.........1T}{{34}{1967}{{{Tinsley}}}{{{Tinsley}}}}
\bibcite{1996grdy.conf..121W}{{35}{1996}{{{White}}}{{{White}}}}
\bibcite{2019arXiv190602209Z}{{36}{2019}{{{Zibetti} et~al.}}{{{Zibetti}, {Gallazzi}, {Hirschmann}, {Consolandi}, {Falc{\'o}n-Barroso}, {van de Ven} \& {Lyubenova}}}}
\@writefile{lof}{\contentsline {figure}{\numberline {A1}{\ignorespaces Mass-size relation}}{15}{figure.A1.1}\protected@file@percent }
\newlabel{fig:MassSize}{{A1}{15}{Mass-size relation}{figure.A1.1}{}}
\@writefile{toc}{\contentsline {section}{\numberline {A}Additional Material}{15}{section.A1}\protected@file@percent }
\@writefile{toc}{\contentsline {subsection}{\numberline {A1}NoAGN: Re-scaling of Effective Radius}{15}{subsection.A1.1}\protected@file@percent }
\@writefile{lof}{\contentsline {figure}{\numberline {A2}{\ignorespaces Comparison of surface density profiles between the two runs}}{16}{figure.A1.2}\protected@file@percent }
\newlabel{fig:LowerSurfaceD}{{A2}{16}{Comparison of surface density profiles between the two runs}{figure.A1.2}{}}
\@writefile{lof}{\contentsline {figure}{\numberline {A3}{\ignorespaces Radial profiles of stellar surface density $\mu _*$ for AGN- (left) and NoAGN-galaxies (right), with the Z19 obersvations (fig3) as a dashed black line (median) and grey shaded area (16$^{th}$ and 84$^{th}$ percentile).}}{16}{figure.A1.3}\protected@file@percent }
\newlabel{fig:SurfaceDvsR}{{A3}{16}{Radial profiles of stellar surface density $\mu _*$ for AGN- (left) and NoAGN-galaxies (right), with the Z19 obersvations (fig3) as a dashed black line (median) and grey shaded area (16$^{th}$ and 84$^{th}$ percentile)}{figure.A1.3}{}}
\@writefile{toc}{\contentsline {subsection}{\numberline {A2}No-AGN: Lowering of Stellar Surface Density/Brightness}{16}{subsection.A1.2}\protected@file@percent }
\@writefile{toc}{\contentsline {subsection}{\numberline {A3}Stellar Surface Density as a Function of Radius}{16}{subsection.A1.3}\protected@file@percent }
\@writefile{toc}{\contentsline {subsection}{\numberline {A4}Relation between $\sigma _e$ and M$_*$ at z = 0}{16}{subsection.A1.4}\protected@file@percent }
\@writefile{toc}{\contentsline {subsection}{\numberline {A5}Case Studies: R$_e$ Approximation \& Test}{16}{subsection.A1.5}\protected@file@percent }
\@writefile{lof}{\contentsline {figure}{\numberline {A4}{\ignorespaces Stellar mass - velocity dispersion relation}}{16}{figure.A1.4}\protected@file@percent }
\newlabel{fig:MassSigma}{{A4}{16}{Stellar mass - velocity dispersion relation}{figure.A1.4}{}}
\@writefile{lof}{\contentsline {figure}{\numberline {A5}{\ignorespaces Comparison of calculated and approximated R$_e$}}{16}{figure.A1.5}\protected@file@percent }
\newlabel{fig:Re2}{{A5}{16}{Comparison of calculated and approximated R$_e$}{figure.A1.5}{}}
\@writefile{toc}{\contentsline {subsection}{\numberline {A6}Cut-off of Profiles at High Radii}{16}{subsection.A1.6}\protected@file@percent }
\@writefile{lof}{\contentsline {figure}{\numberline {A6}{\ignorespaces Profiles calculated with taking the median or mean of bin}}{17}{figure.A1.6}\protected@file@percent }
\newlabel{fig:Median Mean}{{A6}{17}{Profiles calculated with taking the median or mean of bin}{figure.A1.6}{}}
\@writefile{lof}{\contentsline {figure}{\numberline {A7}{\ignorespaces Comparison between weighted and non weighted profiles}}{17}{figure.A1.7}\protected@file@percent }
\newlabel{fig:lum-weighting}{{A7}{17}{Comparison between weighted and non weighted profiles}{figure.A1.7}{}}
\@writefile{toc}{\contentsline {subsection}{\numberline {A7}Impact of Luminosity-weighting on Profiles}{17}{subsection.A1.7}\protected@file@percent }
\@writefile{toc}{\contentsline {subsection}{\numberline {A8}Comparison of Luminosity and Mass-weighted Profiles}{17}{subsection.A1.8}\protected@file@percent }
\@writefile{toc}{\contentsline {subsection}{\numberline {A9}Overview Tables}{17}{subsection.A1.9}\protected@file@percent }
\newlabel{lastpage}{{A9}{17}{Overview Tables}{table.A1.2}{}}
\@writefile{lot}{\contentsline {table}{\numberline {A1}{\ignorespaces For AGN-galaxies at z = 0 the columns are (from left to right): halo-ID, stellar mass inside r10, velocity dispersion inside R$_e$, 10\% of R200, r-band effective/half-light radius, mean circularity parameter, fraction of cold gas inside r10, number of minor mergers, number of major mergers, major merger mass gain, z of last major merger, z of last minor merger, fraction of in-situ formed stars. Cells with an asterisk are due to a missing merger tree.}}{18}{table.A1.1}\protected@file@percent }
\newlabel{tab:AGN overview}{{A1}{18}{For AGN-galaxies at z = 0 the columns are (from left to right): halo-ID, stellar mass inside r10, velocity dispersion inside R$_e$, 10\% of R200, r-band effective/half-light radius, mean circularity parameter, fraction of cold gas inside r10, number of minor mergers, number of major mergers, major merger mass gain, z of last major merger, z of last minor merger, fraction of in-situ formed stars. Cells with an asterisk are due to a missing merger tree}{table.A1.1}{}}
\@writefile{lot}{\contentsline {table}{\numberline {A2}{\ignorespaces Same as table\nobreakspace  {}\ref  {tab:AGN overview} but for NoAGN-galaxies. Halo-IDs marked with an asterisk (*) are those galaxies identified as ETGs.}}{19}{table.A1.2}\protected@file@percent }
\newlabel{tab:NoAGN overview}{{A2}{19}{Same as table~\ref {tab:AGN overview} but for NoAGN-galaxies. Halo-IDs marked with an asterisk (*) are those galaxies identified as ETGs}{table.A1.2}{}}
